14,01
14,11
14,12
14,22
14,31
14,32
14,33
14,34
14,37
14,38
14,40
14,4A
14,52
14,53
14,55
14,56
14,57
14,65
14,6A
14,6B
14,6C
14,6D
14,6E
14,6F
14,6G
14,70
14,77
14,78
14,79
14,7B
14,7D
14,7F
14,7G
14,7H
14,7J
14,7K
14,7P
14,7W
14,7Y
14,82
14,83
14,84
14,85
14,87
14,8A
14,8B
14,8C
14,8D
14,8E
14,8F
14,8H
14,8K
14,8L
14,8M
14,8N
14,8P
14,8R
14,8S
14,8T
14,90
14,97
14,9C
14,9D
14,9E
14,9F
14,9G
14,9K
14,9L
14,9M
14,9P
14,9T
14,9U
14,A1
14,A2
14,A3
14,A6
14,A7
14,A8
14,A9
14,AA
14,AB
14,AC
14,AD
14,AE
14,AJ
14,AK
14,B1
14,B2
14,B3
14,B4
14,B5
14,B6
14,B7
14,B8
14,B9
14,BA
14,BB
14,C1
14,C3
14,C4
14,C8
14,C9
14,CB
14,CC
14,CD
14,CE
14,CH
14,CJ
14,CK
14,CN
14,CQ
14,CR
14,CS
14,CU
14,CX
14,CY
14,CZ
14,E1
14,E2
14,E3
14,E5
14,E6
14,E7
14,E8
14,EB
14,EE
14,EF
14,EG
14,EH
14,EK
14,EM
14,EN
14,EP
14,ER
14,ES
14,EX
14,EY
14,F1
14,F3
14,H2
14,H4
14,H5
14,H6
14,H8
14,H9
14,HP
14,HQ
14,HR
14,HS
14,HU
14,HV
14,HW
14,HX
14,N1
14,N2
14,N4
14,N6
14,N8
14,N9
14,NB
14,NE
14,NF
14,NG
14,NL
14,NM
14,NN
14,NQ
14,NU
14,NV
14,NW
14,P1
14,P3
14,Y1
14,Y2
14,Y3
14,Y4
14,Y5
15,13
15,28
15,7D
15,8F
15,8R
15,EL
15,F2
15,F4
15,F5
15,F6
15,H1
15,H7
15,HT
15,HY
15,HZ
15,N3
15,N7
15,NA
15,NP
15,P2
16,LA
16,LA